<?xml version="1.0" encoding="UTF-8"?>
<svg width="213px" height="43px" viewBox="0 0 213 43" version="1.1" xmlns="http://www.w3.org/2000/svg" xmlns:xlink="http://www.w3.org/1999/xlink">
    <!-- Generator: Sketch 46.1 (44463) - http://www.bohemiancoding.com/sketch -->
    <title>Camtasia</title>
    <desc>Created with Sketch.</desc>
    <defs>
        <polygon id="path-1" points="34.7633647 40.9411765 7.05882353e-05 40.9411765 7.05882353e-05 0.0558352941 34.7633647 0.0558352941"></polygon>
        <polygon id="path-3" points="0.0559058824 29.6470588 19.3310824 29.6470588 19.3310824 0.0559058824 0.0559058824 0.0559058824"></polygon>
        <polygon id="path-5" points="0 41.7021176 212.151176 41.7021176 212.151176 0 0 0"></polygon>
    </defs>
    <g id="Page-1" stroke="none" stroke-width="1" fill="none" fill-rule="evenodd">
        <g id="Camtasia">
            <g id="Page-1">
                <g id="Group-3" transform="translate(0.000000, 0.760941)">
                    <mask id="mask-2" fill="white">
                        <use xlink:href="#path-1"></use>
                    </mask>
                    <g id="Clip-2"></g>
                    <path d="M19.6144235,0.0558352941 C28.9977176,0.0558352941 33.7458353,5.02524706 33.7458353,5.02524706 L32.2761882,6.83230588 C32.2761882,6.83230588 27.5845412,2.37148235 19.6708941,2.37148235 C9.94842353,2.37148235 2.54371765,9.99465882 2.54371765,20.2161882 C2.54371765,30.4941882 9.89195294,38.6259529 19.8406588,38.6259529 C28.3193647,38.6259529 33.2372471,33.2612471 33.2372471,33.2612471 L34.7633647,34.9553647 C34.7633647,34.9553647 29.4498353,40.9412471 19.8406588,40.9412471 C8.30936471,40.9412471 7.05882353e-05,31.6800706 7.05882353e-05,20.2161882 C7.05882353e-05,8.75265882 8.47877647,0.0558352941 19.6144235,0.0558352941" id="Fill-1" fill="#7EAA05" mask="url(#mask-2)"></path>
                </g>
                <path d="M47.2544824,39.4996941 C53.4157765,39.4996941 56.9204824,33.1185176 56.9204824,27.5279294 L56.9204824,26.0032235 L55.1116588,26.0032235 C50.3067176,26.0032235 40.0191882,26.0032235 40.0191882,33.3447529 C40.0191882,36.3376941 42.4498941,39.4996941 47.2544824,39.4996941 M55.0551882,23.8008706 L56.9204824,23.8008706 L56.9204824,22.8408706 C56.9204824,16.5722824 53.6984824,14.4264 49.1762471,14.4264 C44.2587176,14.4264 41.0931882,17.1369882 41.0931882,17.1369882 L39.7364824,15.2169882 C39.7364824,15.2169882 43.1282471,12.1107529 49.2895412,12.1107529 C55.7900118,12.1107529 59.2943647,15.7252235 59.2943647,22.7844 L59.2943647,41.0244 L56.9204824,41.0244 L56.9204824,37.2976941 C56.9204824,35.7726353 57.1463647,34.7565176 57.1463647,34.7565176 L57.0334235,34.7565176 C57.0898941,34.7565176 54.4897765,41.7020471 47.1415412,41.7020471 C42.5628353,41.7020471 37.5320118,39.1612235 37.5320118,33.5141647 C37.5320118,23.9138118 50.0243647,23.8008706 55.0551882,23.8008706" id="Fill-4" fill="#7EAA05"></path>
                <path d="M64.5503294,12.7885059 L66.9245647,12.7885059 L66.9245647,17.7582706 C66.9245647,19.0574471 66.6983294,20.0735647 66.6983294,20.0735647 L66.8112706,20.0735647 C68.2244471,15.8382706 73.2552706,12.1108588 77.6642118,12.1108588 C83.3169176,12.1108588 85.9735059,14.7653294 86.5953882,19.7912118 L86.7083294,19.7912118 C88.2912706,15.8382706 92.5872706,12.1108588 97.4483294,12.1108588 C104.740094,12.1108588 106.888094,16.4026235 106.888094,23.1229765 L106.888094,41.0245059 L104.513859,41.0245059 L104.513859,23.9703882 C104.513859,18.6618 103.440212,14.3132118 97.4483294,14.3132118 C92.7566824,14.3132118 88.7433882,18.4923882 87.4996235,22.8970941 C87.1039765,24.1959176 86.9345647,25.6076824 86.9345647,27.2453294 L86.9345647,41.0245059 L84.5603294,41.0245059 L84.5603294,23.9703882 C84.5603294,19.1135647 83.8819765,14.3132118 77.6642118,14.3132118 C72.6333882,14.3132118 68.6765647,18.7182706 67.3766824,23.4053294 C67.0375059,24.5912118 66.9245647,25.8900353 66.9245647,27.2453294 L66.9245647,41.0245059 L64.5503294,41.0245059 L64.5503294,12.7885059 Z" id="Fill-6" fill="#7EAA05"></path>
                <path d="M113.048365,15.1040118 L109.317776,15.1040118 L109.317776,12.9581294 L113.048365,12.9581294 L113.048365,4.93895294 L115.4226,4.93895294 L115.4226,12.9581294 L122.827306,12.9581294 L122.827306,15.1040118 L115.4226,15.1040118 L115.4226,30.6337765 C115.4226,38.0878941 119.888012,39.0482471 122.148953,39.0482471 C122.940247,39.0482471 123.449188,38.9349529 123.449188,38.9349529 L123.449188,41.1376588 C123.449188,41.1376588 122.883776,41.2506 122.036012,41.2506 C119.096718,41.2506 113.048365,40.1776588 113.048365,30.8031882 L113.048365,15.1040118 Z" id="Fill-8" fill="#7EAA05"></path>
                <path d="M134.132118,39.4996941 C140.293412,39.4996941 143.798118,33.1185176 143.798118,27.5279294 L143.798118,26.0032235 L141.989294,26.0032235 C137.184353,26.0032235 126.896824,26.0032235 126.896824,33.3447529 C126.896824,36.3376941 129.327529,39.4996941 134.132118,39.4996941 M141.932824,23.8008706 L143.798118,23.8008706 L143.798118,22.8408706 C143.798118,16.5722824 140.576118,14.4264 136.053882,14.4264 C131.136353,14.4264 127.970824,17.1369882 127.970824,17.1369882 L126.614118,15.2169882 C126.614118,15.2169882 130.005882,12.1107529 136.167176,12.1107529 C142.667647,12.1107529 146.172,15.7252235 146.172,22.7844 L146.172,41.0244 L143.798118,41.0244 L143.798118,37.2976941 C143.798118,35.7726353 144.024,34.7565176 144.024,34.7565176 L143.911059,34.7565176 C143.967529,34.7565176 141.367412,41.7020471 134.019176,41.7020471 C129.440471,41.7020471 124.409647,39.1612235 124.409647,33.5141647 C124.409647,23.9138118 136.902,23.8008706 141.932824,23.8008706" id="Fill-10" fill="#7EAA05"></path>
                <g id="Group-14" transform="translate(148.941176, 12.055059)">
                    <mask id="mask-4" fill="white">
                        <use xlink:href="#path-3"></use>
                    </mask>
                    <g id="Clip-13"></g>
                    <path d="M1.58202353,23.7742588 C1.58202353,23.7742588 4.74755294,27.3319059 10.3434353,27.3319059 C13.7916706,27.3319059 16.8439059,25.5248471 16.8439059,22.0236706 C16.8439059,14.8519059 1.29931765,16.8844941 1.29931765,7.67978824 C1.29931765,2.65390588 5.53884706,0.0559058824 10.3434353,0.0559058824 C16.1090824,0.0559058824 18.7092,3.10531765 18.7092,3.10531765 L17.2960235,5.02567059 C17.2960235,5.02567059 14.9786118,2.3712 10.1740235,2.3712 C6.95202353,2.3712 3.78649412,3.83978824 3.78649412,7.51037647 C3.78649412,14.8519059 19.3310824,12.6492 19.3310824,22.0236706 C19.3310824,26.5413176 15.4872,29.6472 10.2869647,29.6472 C3.44731765,29.6472 0.0559058824,25.5813176 0.0559058824,25.5813176 L1.58202353,23.7742588 Z" id="Fill-12" fill="#7EAA05" mask="url(#mask-4)"></path>
                </g>
                <mask id="mask-6" fill="white">
                    <use xlink:href="#path-5"></use>
                </mask>
                <g id="Clip-16"></g>
                <path d="M171.775765,41.0244706 L174.15,41.0244706 L174.15,12.7884706 L171.775765,12.7884706 L171.775765,41.0244706 Z M171.549882,5.61670588 L174.376235,5.61670588 L174.376235,1.49435294 L171.549882,1.49435294 L171.549882,5.61670588 Z" id="Fill-15" fill="#7EAA05" mask="url(#mask-6)"></path>
                <path d="M187.206353,39.4996941 C193.367647,39.4996941 196.872353,33.1185176 196.872353,27.5279294 L196.872353,26.0032235 L195.063529,26.0032235 C190.258588,26.0032235 179.971059,26.0032235 179.971059,33.3447529 C179.971059,36.3376941 182.401765,39.4996941 187.206353,39.4996941 M195.007059,23.8008706 L196.872353,23.8008706 L196.872353,22.8408706 C196.872353,16.5722824 193.650353,14.4264 189.128118,14.4264 C184.210588,14.4264 181.045059,17.1369882 181.045059,17.1369882 L179.688353,15.2169882 C179.688353,15.2169882 183.080118,12.1107529 189.241412,12.1107529 C195.741882,12.1107529 199.246235,15.7252235 199.246235,22.7844 L199.246235,41.0244 L196.872353,41.0244 L196.872353,37.2976941 C196.872353,35.7726353 197.098235,34.7565176 197.098235,34.7565176 L196.985294,34.7565176 C197.041765,34.7565176 194.441647,41.7020471 187.093412,41.7020471 C182.514706,41.7020471 177.483882,39.1612235 177.483882,33.5141647 C177.483882,23.9138118 189.976235,23.8008706 195.007059,23.8008706" id="Fill-17" fill="#7EAA05" mask="url(#mask-6)"></path>
                <path d="M208.224953,4.02772941 C208.700365,4.02772941 209.005659,3.72243529 209.005659,3.21314118 C209.005659,2.71514118 208.700365,2.43243529 208.224953,2.43243529 L207.399071,2.43243529 L207.399071,4.02772941 L208.224953,4.02772941 Z M206.765188,1.90090588 L208.337894,1.90090588 C209.118953,1.90090588 209.661776,2.42114118 209.661776,3.21314118 C209.661776,3.86961176 209.243541,4.27690588 208.835894,4.37855294 L208.835894,4.40149412 C208.835894,4.40149412 208.881071,4.45796471 208.983071,4.65031765 L209.831894,6.31372941 L209.129894,6.31372941 L208.247541,4.52572941 L207.399071,4.52572941 L207.399071,6.31372941 L206.765188,6.31372941 L206.765188,1.90090588 Z M208.100365,7.61467059 C210.024247,7.61467059 211.494953,6.08749412 211.494953,4.10714118 C211.494953,2.14972941 210.024247,0.610552941 208.100365,0.610552941 C206.222365,0.610552941 204.774247,2.14972941 204.774247,4.10714118 C204.774247,6.08749412 206.222365,7.61467059 208.100365,7.61467059 L208.100365,7.61467059 Z M208.100365,-3.52941176e-05 C210.352129,-3.52941176e-05 212.151071,1.82149412 212.151071,4.10714118 C212.151071,6.41572941 210.352129,8.22596471 208.100365,8.22596471 C205.894129,8.22596471 204.106482,6.41572941 204.106482,4.10714118 C204.106482,1.82149412 205.894129,-3.52941176e-05 208.100365,-3.52941176e-05 L208.100365,-3.52941176e-05 Z" id="Fill-18" fill="#7EAA05" mask="url(#mask-6)"></path>
            </g>
        </g>
    </g>
</svg>